it/infomaxgroup/testprettyfacesprimefaces5uploadproblem/newpackage/confgurations/TestConfigurationProvider.class
it/infomaxgroup/testprettyfacesprimefaces5uploadproblem/newpackage/controllers/TestController.class
it/infomaxgroup/testprettyfacesprimefaces5uploadproblem/newpackage/controllers/UploadController.class
